<svg width="68" height="21" viewBox="0 0 68 21" fill="none" xmlns="http://www.w3.org/2000/svg">
<g clip-path="url(#clip0_126_969)">
<path d="M48.3404 19.5431C48.7533 19.5431 48.9975 19.2412 48.9975 18.7693C48.9975 18.28 48.7353 17.9954 48.3491 17.9954C48.1282 17.9954 47.9748 18.0899 47.86 18.2401H47.8546V17.4667H47.6152V19.5001H47.8546V19.3069H47.86C47.9841 19.4717 48.1342 19.5431 48.3404 19.5431ZM48.323 19.3494C47.9988 19.3494 47.8394 19.1021 47.8394 18.7719C47.8394 18.4537 47.9928 18.1918 48.3257 18.1918C48.6146 18.1918 48.7533 18.4422 48.7533 18.7719C48.7533 19.1047 48.6146 19.3494 48.323 19.3494ZM49.4017 19.9867C49.5872 19.9867 49.7053 19.9237 49.8288 19.6192L50.4805 18.0295H50.227L49.8788 18.9457C49.832 19.068 49.7787 19.2328 49.7787 19.2328H49.7733C49.7733 19.2328 49.7167 19.068 49.6699 18.9457L49.3103 18.0295H49.0509L49.646 19.4575L49.5872 19.6024C49.5285 19.7447 49.4605 19.782 49.3604 19.782C49.3045 19.7847 49.2487 19.7739 49.1983 19.7505H49.1863V19.9552C49.2516 19.981 49.3103 19.9867 49.4017 19.9867ZM51.0914 19.5001H51.4923V17.4667H51.0914V19.5001ZM52.4726 19.5431C52.941 19.5431 53.2625 19.2071 53.2625 18.7719C53.2625 18.3367 52.9415 18.0012 52.4726 18.0012C52.0042 18.0012 51.6827 18.3372 51.6827 18.7719C51.6827 19.2076 52.0037 19.5431 52.4726 19.5431ZM52.4726 19.247C52.2251 19.247 52.0896 19.0564 52.0896 18.7719C52.0896 18.4879 52.2251 18.2941 52.4726 18.2941C52.7174 18.2941 52.8556 18.4879 52.8556 18.7719C52.8556 19.0564 52.7174 19.247 52.4726 19.247ZM54.1149 19.9978C54.3391 19.9978 54.5333 19.9468 54.66 19.8329C54.7721 19.7332 54.8401 19.594 54.8401 19.3893V18.0411H54.4539V18.1949H54.4479C54.3565 18.0726 54.2183 18.0012 54.029 18.0012C53.6466 18.0012 53.3751 18.28 53.3751 18.7152C53.3751 19.1562 53.7053 19.4119 54.0415 19.4119C54.233 19.4119 54.3478 19.3384 54.4359 19.2412H54.4452V19.4008C54.4452 19.5998 54.3364 19.7053 54.109 19.7053C53.9235 19.7053 53.838 19.6339 53.8054 19.5426H53.4077C53.4485 19.8271 53.702 19.9978 54.1149 19.9978ZM54.1095 19.1021C53.9028 19.1021 53.7668 18.9572 53.7668 18.7094C53.7668 18.4648 53.9028 18.3115 54.1062 18.3115C54.3478 18.3115 54.4658 18.4931 54.4658 18.7068C54.4658 18.9231 54.3625 19.1021 54.109 19.1021H54.1095ZM55.8144 19.5431C56.2828 19.5431 56.6043 19.2071 56.6043 18.7719C56.6043 18.3367 56.2828 18.0012 55.8144 18.0012C55.3455 18.0012 55.0245 18.3372 55.0245 18.7719C55.0245 19.2076 55.3455 19.5431 55.8144 19.5431ZM55.8144 19.247C55.5669 19.247 55.4309 19.0564 55.4309 18.7719C55.4309 18.4879 55.5669 18.2941 55.8144 18.2941C56.0587 18.2941 56.1974 18.4879 56.1974 18.7719C56.1974 19.0564 56.0587 19.247 55.8144 19.247ZM56.7903 19.5001H57.1913V18.0411H56.7903V19.5001ZM56.7903 17.8138H57.1913V17.4667H56.7903V17.8138ZM57.4497 19.9778H57.8506V19.3357H57.856C57.942 19.4612 58.0802 19.5436 58.2923 19.5436C58.6813 19.5436 58.9468 19.2444 58.9468 18.7724C58.9468 18.3172 58.6905 18.0017 58.2896 18.0017C58.2022 18.0003 58.1158 18.0199 58.0381 18.0587C57.9605 18.0974 57.894 18.1542 57.8446 18.2238H57.8359V18.0416H57.4497V19.9789V19.9778ZM58.2069 19.2218C57.9681 19.2218 57.8413 19.048 57.8413 18.7834C57.8413 18.522 57.942 18.3141 58.1922 18.3141C58.4397 18.3141 58.5398 18.5073 58.5398 18.7834C58.5398 19.0596 58.4104 19.2218 58.2069 19.2218ZM59.7464 19.5431C60.1234 19.5431 60.3829 19.3667 60.3829 19.0738C60.3829 18.7325 60.1028 18.6643 59.8492 18.6128C59.6344 18.5703 59.4342 18.5587 59.4342 18.4338C59.4342 18.3288 59.537 18.271 59.6931 18.271C59.8645 18.271 59.9673 18.3288 59.9853 18.4847H60.3476C60.3182 18.1918 60.0973 18.0017 59.6991 18.0017C59.3542 18.0017 59.0833 18.1519 59.0833 18.4679C59.0833 18.7861 59.3482 18.8575 59.6197 18.9089C59.8259 18.9483 60.0173 18.9625 60.0173 19.1021C60.0173 19.2045 59.9173 19.2701 59.7405 19.2701C59.5609 19.2701 59.4369 19.1961 59.4102 19.0281H59.0392C59.0626 19.3378 59.3074 19.5431 59.7464 19.5431ZM61.905 19.5001V18.0411H61.5041V18.8832C61.5041 19.0764 61.3888 19.2129 61.2005 19.2129C61.0297 19.2129 60.9498 19.1189 60.9498 18.9483V18.0411H60.5521V19.0139C60.5521 19.3326 60.7409 19.54 61.0765 19.54C61.2887 19.54 61.4067 19.4633 61.5101 19.33H61.5188V19.5001H61.905ZM62.164 19.5001H62.5649V18.6532C62.5649 18.4595 62.6737 18.3346 62.8358 18.3346C62.9832 18.3346 63.0686 18.4201 63.0686 18.585V19.5006H63.4696V18.6532C63.4696 18.4595 63.5729 18.3346 63.741 18.3346C63.8885 18.3346 63.9739 18.4201 63.9739 18.585V19.5006H64.3748V18.5194C64.3748 18.2007 64.1947 18.0017 63.8765 18.0017C63.685 18.0017 63.5256 18.0983 63.4228 18.2579H63.4168C63.3805 18.1804 63.3215 18.1149 63.2471 18.0693C63.1726 18.0238 63.086 18.0003 62.9979 18.0017C62.9095 17.9996 62.8222 18.0204 62.745 18.0619C62.6677 18.1035 62.6035 18.1643 62.5589 18.238H62.5502V18.0416H62.164V19.5011V19.5001Z" fill="#E5708C"/>
<path d="M64.4538 1.12837C64.4538 0.507295 64.9755 0.0032947 65.6191 0.0032947H66.3965C66.7057 0.0032947 67.0022 0.121829 67.2208 0.332822C67.4394 0.543814 67.5623 0.829981 67.5623 1.12837C67.5623 1.42676 67.4394 1.71293 67.2208 1.92392C67.0022 2.13491 66.7057 2.25344 66.3965 2.25344H65.6191C65.466 2.25344 65.3144 2.22434 65.173 2.16779C65.0316 2.11125 64.9032 2.02837 64.7949 1.92389C64.6867 1.81941 64.6009 1.69537 64.5424 1.55888C64.4838 1.42238 64.4538 1.27609 64.4538 1.12837ZM31.8187 7.50239C31.8187 11.6436 28.3404 15.001 24.0488 15.001C19.7577 15.001 16.2788 11.6436 16.2788 7.50239C16.2788 3.36014 19.7577 0.0038197 24.0488 0.0038197C28.3404 0.0038197 31.8187 3.36014 31.8187 7.50239ZM14.7632 7.46512C15.193 7.46512 15.5444 7.80112 15.5015 8.21377C15.3546 9.62593 14.7955 10.9689 13.8891 12.0865C12.9827 13.2041 11.7663 14.0506 10.3812 14.5275C8.99606 15.0044 7.49915 15.0921 6.06442 14.7805C4.62969 14.4689 3.31605 13.7708 2.27616 12.7672C1.23628 11.7636 0.512864 10.4959 0.189983 9.11125C-0.132897 7.72663 -0.0419802 6.28201 0.452168 4.94528C0.946315 3.60855 1.8234 2.4346 2.98149 1.55987C4.13958 0.685144 5.53112 0.145556 6.99439 0.0038197C7.42143 -0.0381803 7.77013 0.30202 7.77013 0.71572V6.71489C7.77013 7.12964 8.11829 7.46512 8.54751 7.46512H14.7632ZM42.6971 16.5009C43.3153 16.5009 43.9082 16.7379 44.3454 17.1598C44.7826 17.5817 45.0281 18.1539 45.0281 18.7505C45.0281 19.3472 44.7826 19.9194 44.3454 20.3412C43.9082 20.7631 43.3153 21.0001 42.6971 21.0001H38.8124C38.1942 21.0001 37.6013 20.7631 37.1641 20.3412C36.727 19.9194 36.4814 19.3472 36.4814 18.7505C36.4814 18.1539 36.727 17.5817 37.1641 17.1598C37.6013 16.7379 38.1942 16.5009 38.8124 16.5009H42.6971ZM40.3661 15.001C44.6577 15.001 48.1366 11.6436 48.1366 7.50239C48.1384 6.23029 47.8034 4.97883 47.1633 3.86677L48.4472 2.62777C48.5951 2.48499 48.7124 2.31549 48.7924 2.12896C48.8724 1.94243 48.9135 1.74253 48.9135 1.54065C48.9134 1.33877 48.8722 1.13888 48.7921 0.95239C48.712 0.765898 48.5946 0.596459 48.4466 0.453745C48.2987 0.311031 48.1231 0.197837 47.9298 0.120627C47.7365 0.0434174 47.5294 0.0037031 47.3202 0.00375185C47.111 0.00380061 46.9039 0.0436115 46.7106 0.120911C46.5174 0.198211 46.3418 0.311487 46.1939 0.45427L45.0733 1.53577C43.7213 0.53927 42.0667 0.000652995 40.3655 0.0032947C36.075 0.0038197 32.5967 3.36014 32.5967 7.50239C32.5967 11.6436 36.075 15.001 40.3661 15.001ZM64.4538 7.50239C64.4538 11.6436 60.975 15.001 56.6833 15.001C52.3923 15.001 48.9134 11.6436 48.9134 7.50239C48.9134 3.36014 52.3923 0.0038197 56.6833 0.0038197C60.975 0.0038197 64.4538 3.36067 64.4538 7.50239Z" fill="url(#paint0_linear_126_969)"/>
</g>
<defs>
<linearGradient id="paint0_linear_126_969" x1="0.00017824" y1="8.40015" x2="64.7362" y2="8.40015" gradientUnits="userSpaceOnUse">
<stop stop-color="#64C2DB"/>
<stop offset="0.307" stop-color="#7476ED"/>
<stop offset="0.604" stop-color="#C994DF"/>
<stop offset="1" stop-color="#E56F8C"/>
</linearGradient>
<clipPath id="clip0_126_969">
<rect width="68" height="21" fill="white"/>
</clipPath>
</defs>
</svg>
