<svg width="76" height="29" viewBox="0 0 76 29" fill="none" xmlns="http://www.w3.org/2000/svg">
<path d="M15.7851 14.7058C15.7851 13.6471 16.4063 12.9096 17.3556 12.9096C18.305 12.9096 18.9261 13.6471 18.9261 14.7058C18.9261 15.7527 18.305 16.502 17.3556 16.502C16.4063 16.502 15.7851 15.7527 15.7851 14.7058Z" fill="#152C4F"/>
<path d="M23.8139 12.8621C22.9115 12.8621 22.302 13.5758 22.302 14.5512C22.302 15.5386 22.9232 16.2761 23.8139 16.2761C24.7984 16.2761 25.4548 15.5267 25.4548 14.5512C25.4548 13.5877 24.7984 12.8621 23.8139 12.8621Z" fill="#152C4F"/>
<path d="M29.0455 14.7058C29.0455 13.6471 29.6667 12.9096 30.6161 12.9096C31.5654 12.9096 32.1866 13.6471 32.1866 14.7058C32.1866 15.7527 31.5654 16.502 30.6161 16.502C29.6667 16.502 29.0455 15.7527 29.0455 14.7058Z" fill="#152C4F"/>
<path d="M38.5966 14.7177C38.5966 13.659 39.2295 12.9215 40.2257 12.9215C41.222 12.9215 41.8197 13.6709 41.8197 14.7177C41.8197 15.7645 41.222 16.502 40.2257 16.502C39.2295 16.502 38.5966 15.7764 38.5966 14.7177Z" fill="#152C4F"/>
<path fill-rule="evenodd" clip-rule="evenodd" d="M38 27.1508C57.914 27.1508 74.0575 21.4015 74.0575 14.3092C74.0575 7.21701 57.914 1.46765 38 1.46765C18.0859 1.46765 1.94231 7.21701 1.94231 14.3092C1.94231 21.4015 18.0859 27.1508 38 27.1508ZM13.4683 17.656V8.8057H12.0384V17.656H13.4683ZM14.3435 14.7059C14.3435 16.514 15.539 17.7988 17.3556 17.7988C19.1723 17.7988 20.3677 16.514 20.3677 14.7059C20.3677 12.8978 19.1723 11.6131 17.3556 11.6131C15.539 11.6131 14.3435 12.8978 14.3435 14.7059ZM23.5678 17.537C21.9386 17.537 20.8486 16.2999 20.8486 14.5869C20.8486 12.8621 21.9621 11.5892 23.6146 11.5892C24.4702 11.5892 25.1969 11.9581 25.5485 12.5766L25.6305 11.7796H26.8963V17.3586C26.8963 19.2976 25.7009 20.5466 23.8256 20.5466C22.2316 20.5466 21.0713 19.5474 20.8838 18.0128H22.3254C22.4074 18.7861 23.0169 19.2262 23.9076 19.2262C24.9039 19.2262 25.5016 18.5838 25.5016 17.6203V16.6211C25.1383 17.192 24.4116 17.537 23.5678 17.537ZM27.6039 14.7059C27.6039 16.514 28.7994 17.7988 30.6161 17.7988C32.4327 17.7988 33.6282 16.514 33.6282 14.7059C33.6282 12.8978 32.4327 11.6131 30.6161 11.6131C28.7994 11.6131 27.6039 12.8978 27.6039 14.7059ZM36.0312 9.70979C36.0312 10.1975 35.6445 10.5782 35.1756 10.5782C34.6951 10.5782 34.3318 10.1975 34.3318 9.70979C34.3318 9.23393 34.6951 8.85327 35.1756 8.85327C35.6445 8.85327 36.0312 9.23393 36.0312 9.70979ZM35.8906 11.7796V17.656H34.4607V11.7796H35.8906ZM37.1433 20.3801H38.538V16.8471C38.9013 17.4538 39.6866 17.8106 40.5539 17.8106C42.2651 17.8106 43.2847 16.4783 43.2613 14.6464C43.2261 12.8026 42.183 11.6011 40.5422 11.6011C39.6632 11.6011 38.8662 11.9937 38.5146 12.6718L38.4325 11.7796H37.1433V20.3801ZM45.945 17.8106C44.562 17.8106 43.6712 17.0612 43.6244 15.8954H44.9253C44.9253 16.407 45.2886 16.7043 45.9215 16.7043C46.449 16.7043 46.8826 16.4902 46.8826 16.0263C46.8826 15.6932 46.6482 15.5148 46.2731 15.4077L45.2652 15.146C44.1518 14.8486 43.7181 14.2182 43.7181 13.4568C43.7181 12.3387 44.644 11.6011 45.8864 11.6011C47.1404 11.6011 47.996 12.3387 48.0429 13.5045H46.742C46.742 12.9929 46.3903 12.6837 45.8512 12.6837C45.3355 12.6837 45.0191 12.9691 45.0191 13.3736C45.0191 13.7543 45.3121 13.9089 45.7457 14.0278L46.7654 14.2776C47.7148 14.5155 48.2304 15.0865 48.2304 15.9312C48.2304 17.0731 47.3045 17.8106 45.945 17.8106ZM51.1965 17.8106C51.9815 17.8106 52.7315 17.4418 53.0715 16.8947L53.1655 17.656H54.5015V11.7796H53.0715V14.8605C53.0715 15.9192 52.673 16.514 51.7355 16.514C51.009 16.514 50.505 16.1571 50.505 14.9438V11.7796H49.0749V15.4553C49.0749 16.859 49.825 17.8106 51.1965 17.8106ZM57.1935 14.2776V17.656H55.7635V11.7796H57.076L57.1465 12.4458C57.4865 11.9223 58.096 11.6011 58.7755 11.6011C59.7365 11.6011 60.3695 12.0294 60.686 12.7193C60.9675 12.0294 61.659 11.6011 62.538 11.6011C63.9445 11.6011 64.6825 12.4577 64.6825 13.8137V17.656H63.2995V14.1468C63.2995 13.3141 62.8545 12.874 62.163 12.874C61.483 12.874 60.944 13.326 60.944 14.2895V17.656H59.549V14.1468C59.549 13.3141 59.104 12.874 58.424 12.874C57.7445 12.874 57.1935 13.326 57.1935 14.2776Z" fill="#152C4F"/>
</svg>
